{
    "result": "0",
    "msg": "查看更多",
    "info": {
        "pageCount": 31,
        "pageNo": 1,
        "pageSize": 10,
        "value": [
            {
                "icon": "http://appimg1.3g.qq.com/android/49367/17589005/icon_72.png",
                "count": "353464",
                "versionname": "5.0.2.710",
                "sdkver": "2.1",
                "score": "4",
                "appid": "49367",
                "softname": "QQ浏览器",
                "cid": "115",
                "lang": "中文",
                "softdesc": "我的浏览器，要极速，使我快人一步！\n我的浏览器，还要内容丰富，资讯、视频、小说、漫画统统囊括！\n我的浏览器，更要特权爆棚，独家游戏礼包、万千网购特价，一手掌控！\n...",
                "fee": "免费",
                "icfa": "15144192049367001000",
                "filesize": "11.25M",
                "cptype": "1",
                "publishtime": "2014-02-25",
                "starnumber": "90",
                "cpname": "腾讯",
                "pkgid": "17589005",
                "cname": "工具",
                "downcount": "1.1亿次"
            },
            {
                "icon": "http://appimg1.3g.qq.com/android_new/931/10261931/17704483/icon_72.png",
                "count": "1563",
                "versionname": "2.2.0",
                "sdkver": "2.3.2",
                "score": "3",
                "appid": "10261931",
                "softname": "微视",
                "cid": "106",
                "lang": "中文",
                "softdesc": "内容提要：\n最新潮流、最好玩、最搞笑的8秒视频秀!\n徐静蕾、Angelababy、莫文蔚、谢娜、何炅、陈坤、郑嘉颖、苍老师等等都在玩!\n超简单！拍视频当导演跟拍照一样！\n省流量...",
                "fee": "免费",
                "icfa": "15144192102619002000",
                "filesize": "12.27M",
                "cptype": "1",
                "publishtime": "2014-03-19",
                "starnumber": "60",
                "cpname": "腾讯",
                "pkgid": "17710822",
                "cname": "社交",
                "downcount": "400万次"
            },
            {
                "icon": "http://appimg1.3g.qq.com/android/47573/17689279/icon_72.png",
                "count": "5913",
                "versionname": "4.1.11.11713",
                "sdkver": "2.0",
                "score": "4",
                "appid": "47573",
                "softname": "开迅视频播放器-高清电影电视",
                "cid": "103",
                "lang": "中文",
                "softdesc": "开迅视频--狂扫手机界的超人气看片神器邀微博、QQ好友一起看，边截屏边语音聊天，或在看吧与妹子，男神独处私聊，小伙伴们都笑cry了全新推出美女直播特色频道，时下最赞功...",
                "fee": "免费",
                "icfa": "15144192047573010000",
                "filesize": "10.04M",
                "cptype": "1",
                "publishtime": "2014-03-14",
                "starnumber": "80",
                "cpname": "杭州开迅科技有限公司",
                "pkgid": "17689279",
                "cname": "视频",
                "downcount": "1,000万次"
            }
        ],
        "nextPageIndex": -2145386491
    }
}